…
bike_monthly_avg_across_years<-bike%>%
  filter(year %in% c(2016, 2017, 2018, 2019))%>%
  group_by(month)%>%
  summarise(monthly_avg_across_years=mean(bikes_hired))

bike_monthly_avg <-bike_monthly_avg%>% 
  inner_join(bike_monthly_avg_across_years, by = "month")%>%
  mutate(monthly_avg_across_years=ifelse(year==2022 & (month %in% c("Sep", "Oct", "Nov", "Dec")), NA, monthly_avg_across_years))
  
bike_monthly_avg

## # A tibble: 72 × 5
## # Groups:   year, month [72]
##     year month monthly_avg date       monthly_avg_across_years
##    <dbl> <chr>       <dbl> <date>                        <dbl>
##  1  2017 Jan        20596. 2017-01-01                   20617.
##  2  2017 Feb        22091. 2017-02-01                   22049.
##  3  2017 Mar        26444. 2017-03-01                   23237.
##  4  2017 Apr        30591. 2017-04-01                   28299.
##  5  2017 May        32019. 2017-05-01                   33270.
##  6  2017 Jun        36610. 2017-06-01                   35413.
##  7  2017 Jul        36511. 2017-07-01                   38109.
##  8  2017 Aug        32071. 2017-08-01                   34393.
##  9  2017 Sep        31158. 2017-09-01                   33013.
## 10  2017 Oct        31409. 2017-10-01                   30235.
## # … with 62 more rows
…
bike_weekly_avg_across_years<-bike%>%
  mutate(year_corrected=ifelse(month=="Jan"&(week==52|week==53), year-1, ifelse(month=="Dec"&(week==1), year+1, year)))%>%
  filter(year %in% c(2016, 2017, 2018, 2019))%>%
  group_by(week)%>%
  summarise(weekly_avg_across_years=mean(bikes_hired))%>%
  ungroup()

bike_weekly_avg <- bike_weekly_avg %>%
  inner_join(bike_weekly_avg_across_years, by = "week")%>%
mutate(weekly_change=weekly_avg/weekly_avg_across_years-1)

bike_weekly_avg

## # A tibble: 296 × 5
##    year_corrected  week weekly_avg weekly_avg_across_years weekly_change
##             <dbl> <dbl>      <dbl>                   <dbl>         <dbl>
##  1           2017     1     17662.                  17202.       0.0267 
##  2           2017     2     21858.                  22056.      -0.00899
##  3           2017     3     22691.                  21892.       0.0365 
##  4           2017     4     21269.                  21470.      -0.00933
##  5           2017     5     21643.                  21194.       0.0212 
##  6           2017     6     19782.                  20226.      -0.0219 
##  7           2017     7     24019.                  23254.       0.0329 
##  8           2017     8     23326.                  23575.      -0.0106 
##  9           2017     9     21642.                  20167        0.0731 
## 10           2017    10     26597.                  23403.       0.136  
## # … with 286 more rows
…
